{"from":1,"to":20,"count":10000,"_links":{"next":{"href":"https://api.edamam.com/api/recipes/v2?q=chicken&app_key=0e985ceeeb7bcc4f7d5963fe118bf7e7&field=ingredientLines&_cont=CHcVQBtNNQphDmgVQntAEX4BYkt6DAQOQWZGBWUTa1B3DAcVX3dDAjdGMVZzDQFUQDRFC2UbMgd6UFYPFmdFBTEVNlJzUBFqX3cWQT1OcV9xBE4%3D&type=public&app_id=b67d3b8c","title":"Next page"}},"hits":[{"recipe":{"ingredientLines":["1/2 cup olive oil","5 cloves garlic, peeled","2 large russet potatoes, peeled and cut into chunks","1 3-4 pound chicken, cut into 8 pieces (or 3 pound chicken legs)","3/4 cup white wine","3/4 cup chicken stock","3 tablespoons chopped parsley","1 tablespoon dried oregano","Salt and pepper","1 cup frozen peas, thawed"]},"_links":{"self":{"title":"Self","href":"https://api.edamam.com/api/recipes/v2/b79327d05b8e5b838ad6cfd9576b30b6?type=public&app_id=b67d3b8c&app_key=0e985ceeeb7bcc4f7d5963fe118bf7e7"}}},{"recipe":{"ingredientLines":["1/2 cup (125ml) mirin","1/2 cup (125ml) soy sauce","One 2-inch (5cm) piece of fresh ginger, peeled and grated","2-pounds (900g) boneless chicken thighs (4-8 thighs, depending on size)"]},"_links":{"self":{"title":"Self","href":"https://api.edamam.com/api/recipes/v2/7bf4a371c6884d809682a72808da7dc2?type=public&app_id=b67d3b8c&app_key=0e985ceeeb7bcc4f7d5963fe118bf7e7"}}},{"recipe":{"ingredientLines":["640 grams chicken - drumsticks and thighs ( 3 whole chicken legs cut apart)","1/2 teaspoon salt","1/4 teaspoon black pepper","1 tablespoon butter – cultured unsalted (or olive oil)","240 grams onion sliced thin (1 large onion)","70 grams Anaheim pepper chopped (1 large pepper)","25 grams paprika (about 1/4 cup)","1 cup chicken stock","1/2 teaspoon salt","1/2 cup sour cream","1 tablespoon flour – all-purpose"]},"_links":{"self":{"title":"Self","href":"https://api.edamam.com/api/recipes/v2/8275bb28647abcedef0baaf2dcf34f8b?type=public&app_id=b67d3b8c&app_key=0e985ceeeb7bcc4f7d5963fe118bf7e7"}}},{"recipe":{"ingredientLines":["6 bone-in chicken breast halves, or 6 chicken thighs and wings, skin-on","1/2 teaspoon coarse salt","1/2 teaspoon Mrs. Dash seasoning","1/4 teaspoon freshly ground black pepper"]},"_links":{"self":{"title":"Self","href":"https://api.edamam.com/api/recipes/v2/be3ba087e212f13672b553ecfa876333?type=public&app_id=b67d3b8c&app_key=0e985ceeeb7bcc4f7d5963fe118bf7e7"}}},{"recipe":{"ingredientLines":["1 whole chicken (or 3 chicken carcasses), cut up into chunks","1/3 cup water","2 pinches salt"]},"_links":{"self":{"title":"Self","href":"https://api.edamam.com/api/recipes/v2/708c612ee5a166b19b1675d98c045597?type=public&app_id=b67d3b8c&app_key=0e985ceeeb7bcc4f7d5963fe118bf7e7"}}},{"recipe":{"ingredientLines":["1 tbsp. vegetable oil","4 pieces chicken, trimmed, skin pierced with a fork","½ cup Teriyaki Sauce"]},"_links":{"self":{"title":"Self","href":"https://api.edamam.com/api/recipes/v2/888e9fc4a808e9e4ccdb2ac24a6a2f46?type=public&app_id=b67d3b8c&app_key=0e985ceeeb7bcc4f7d5963fe118bf7e7"}}},{"recipe":{"ingredientLines":["1 whole 4-pound chicken, quartered","8 slices bacon","30 cloves garlic","3 lemons, peeled, rinds thinly sliced and reserved","½ cup Banyuls or another fortified dessert wine","1 cup veal or chicken stock"]},"_links":{"self":{"title":"Self","href":"https://api.edamam.com/api/recipes/v2/2463f2482609d7a471dbbf3b268bd956?type=public&app_id=b67d3b8c&app_key=0e985ceeeb7bcc4f7d5963fe118bf7e7"}}},{"recipe":{"ingredientLines":["100.0ml soy sauce (Kikkoman is good)","4.0 tbsp smooth peanut butter","4 skinless chicken breasts fillets"]},"_links":{"self":{"title":"Self","href":"https://api.edamam.com/api/recipes/v2/14ebd7d6d65f761843dba35202de4b37?type=public&app_id=b67d3b8c&app_key=0e985ceeeb7bcc4f7d5963fe118bf7e7"}}},{"recipe":{"ingredientLines":["1 whole chicken, 3 1/2 to 4 pounds","Kosher salt and freshly ground black pepper"]},"_links":{"self":{"title":"Self","href":"https://api.edamam.com/api/recipes/v2/3da1169eb633a5e4607890ebf7dee89f?type=public&app_id=b67d3b8c&app_key=0e985ceeeb7bcc4f7d5963fe118bf7e7"}}},{"recipe":{"ingredientLines":["2 large chicken breasts","1/2 cup flour","3 tablespoons vegetable oil","2 scallions white part only, minced","3 tablespoons lemon juice","1 cup chicken stock","1 teaspoon honey","2 tablespoons unsalted butter cut into small pieces","2 tablespoons parsley minced","2 tablespoons capers","1 teaspoon lemon zest finely zested"]},"_links":{"self":{"title":"Self","href":"https://api.edamam.com/api/recipes/v2/10abfbc20e802c832453500bcc50e1bd?type=public&app_id=b67d3b8c&app_key=0e985ceeeb7bcc4f7d5963fe118bf7e7"}}},{"recipe":{"ingredientLines":["1 chicken carcass, from a roasted chicken","2 or more chicken feet","1 large yellow onion, quartered","4 green onions or 2 leeks","1 tablespoon black peppercorns, whole","1 tablespoon crushed red pepper flakes"]},"_links":{"self":{"title":"Self","href":"https://api.edamam.com/api/recipes/v2/11f52d212cfd385f39a377b3f1549a0c?type=public&app_id=b67d3b8c&app_key=0e985ceeeb7bcc4f7d5963fe118bf7e7"}}},{"recipe":{"ingredientLines":["1 pack instant ramen noodles","600ml chicken stock","½ cooked chicken breast , sliced","4 tbsp sweetcorn , peas or chopped beans","1 egg","sesame oil , to serve (optional)"]},"_links":{"self":{"title":"Self","href":"https://api.edamam.com/api/recipes/v2/72a3b66afe35edd2f162d02d991d0645?type=public&app_id=b67d3b8c&app_key=0e985ceeeb7bcc4f7d5963fe118bf7e7"}}},{"recipe":{"ingredientLines":["2 whole chicken parts (two breasts, two leg/thighs, or a mix), totaling about 2 pounds","One 1-inch piece of ginger","Kosher salt","1 cup Shaoxing rice wine","1 cup chicken broth from simmering"]},"_links":{"self":{"title":"Self","href":"https://api.edamam.com/api/recipes/v2/3732f635ac27370d3ffcc58283eeadd9?type=public&app_id=b67d3b8c&app_key=0e985ceeeb7bcc4f7d5963fe118bf7e7"}}},{"recipe":{"ingredientLines":["600 grams chicken leg – bone-in skin-on (2 large legs)","1/2 teaspoon salt","1 tablespoon extra virgin olive oil","2 lemons","6 sprigs thyme","black pepper"]},"_links":{"self":{"title":"Self","href":"https://api.edamam.com/api/recipes/v2/b43f2afae4a7486a48fd5af9a679b1c9?type=public&app_id=b67d3b8c&app_key=0e985ceeeb7bcc4f7d5963fe118bf7e7"}}},{"recipe":{"ingredientLines":["2 Shallots","2 teaspoons Fresh Rosemary","2 Chicken Breasts","3.5 tablespoons Balsamic Vinegar","4 tablespoons Fig Jam","1/3 cup Chicken Stock"]},"_links":{"self":{"title":"Self","href":"https://api.edamam.com/api/recipes/v2/ff8531cd494f9ac93c169ade504b60ae?type=public&app_id=b67d3b8c&app_key=0e985ceeeb7bcc4f7d5963fe118bf7e7"}}},{"recipe":{"ingredientLines":["3/4 pound chicken fat and skin, finely chopped","1 medium onion, chopped"]},"_links":{"self":{"title":"Self","href":"https://api.edamam.com/api/recipes/v2/55be36f38e1f37932c39f610372da034?type=public&app_id=b67d3b8c&app_key=0e985ceeeb7bcc4f7d5963fe118bf7e7"}}},{"recipe":{"ingredientLines":["1/2 cup water","2 tablespoons Japanese soy sauce","2 tablespoons dark brown sugar","2 tablespoons mirin","4-6 skin-on filleted (boneless) chicken thighs","2 tablespoons mild flavored honey (or maltose)","2 tablespoons dark soy sauce","2 tablespoons sake"]},"_links":{"self":{"title":"Self","href":"https://api.edamam.com/api/recipes/v2/0a3f49a3da07cd8379d4e35f7a1a72fc?type=public&app_id=b67d3b8c&app_key=0e985ceeeb7bcc4f7d5963fe118bf7e7"}}},{"recipe":{"ingredientLines":["1 chicken, about 3.5 to 4 pounds","1 lemon","1 blood orange","1 tangerine or clementine","Kosher salt","1/2 cup chicken broth"]},"_links":{"self":{"title":"Self","href":"https://api.edamam.com/api/recipes/v2/d81795fb677ba4f12ab1a104e10aac98?type=public&app_id=b67d3b8c&app_key=0e985ceeeb7bcc4f7d5963fe118bf7e7"}}},{"recipe":{"ingredientLines":["1 pound chicken hearts","For the sauce:","2 chicken carcasses cut into 6 to 8 pieces","1 cup sake","1 cup mirin","1 to 1/2 cups soy sauce, depending on darkness","3 tablespoons sugar","Freshly ground black pepper"]},"_links":{"self":{"title":"Self","href":"https://api.edamam.com/api/recipes/v2/e33f20984ebf3b5512a0554bfb7f7daf?type=public&app_id=b67d3b8c&app_key=0e985ceeeb7bcc4f7d5963fe118bf7e7"}}},{"recipe":{"ingredientLines":["One 3- to 4-pound chicken","1 lemon and/or 1 medium onion, quartered","Kosher salt"]},"_links":{"self":{"title":"Self","href":"https://api.edamam.com/api/recipes/v2/31eeb3092c3a5878ab9de8e256c6e70d?type=public&app_id=b67d3b8c&app_key=0e985ceeeb7bcc4f7d5963fe118bf7e7"}}}]}